MULTIVARIJATNE STATISTIČKE METODE
…
---

# Predviđanje u data.frame objektu

```r
prediction_data <- nezavisne_vars %>%
mutate(mass_g = predict(tezina_vs_visina, nezavisne_vars))
prediction_data
```

```
## # A tibble: 21 x 2
##    length_cm mass_g
##        <int>  <dbl>
##  1        20   214.
##  2        21   258.
##  3        22   302.
##  4        23   346.
##  5        24   391.
##  6        25   435.
##  7        26   479.
##  8        27   523.
##  9        28   567.
## 10        29   612.
## # ... with 11 more rows
```
…
