MULTIVARIJATNE STATISTIČKE METODE
…
# Pobroji riječi

```r
tidy_review %>%
count(word) %>%
arrange(desc(n))
```

```
## # A tibble: 10,310 x 2
##    word      n
##    <chr> <int>
##  1 the   11785
##  2 it     7905
##  3 and    6794
##  4 to     6440
##  5 i      6034
##  6 a      5884
##  7 is     3347
##  8 of     3229
##  9 have   2470
## 10 that   2410
## # ... with 10,300 more rows
```
…
---

# anti_join()
<br>

```r
tidy_review2 <- recenzije_Dta %>%
  unnest_tokens(word, Review) %>%
  anti_join(stop_words)
tidy_review2
```

```
## # A tibble: 78,868 x 5
##    Date     Product                    Stars Title                  word       
##    <chr>    <chr>                      <dbl> <chr>                  <chr>      
##  1 1/12/15  iRobot Roomba 650 for Pets     4 Four Stars             walk       
##  2 1/12/15  iRobot Roomba 650 for Pets     4 Four Stars             rest       
##  3 12/26/13 iRobot Roomba 650 for Pets     5 Awesome love it.       roomba     
##  4 12/26/13 iRobot Roomba 650 for Pets     5 Awesome love it.       proof      
##  5 12/26/13 iRobot Roomba 650 for Pets     5 Awesome love it.       house      
##  6 12/26/13 iRobot Roomba 650 for Pets     5 Awesome love it.       awesome    
##  7 12/26/13 iRobot Roomba 650 for Pets     5 Awesome love it.       pet        
##  8 12/26/13 iRobot Roomba 650 for Pets     5 Awesome love it.       cleans     
##  9 8/4/13   iRobot Roomba 650 for Pets     3 Love-hate this vaccuum fascinating
## 10 8/4/13   iRobot Roomba 650 for Pets     3 Love-hate this vaccuum albeit     
## # ... with 78,858 more rows
```
…
---

# Pobroji riječi (*ponovno*)

```r
tidy_review2 %>%
count(word) %>%
arrange(desc(n))
```

```
## # A tibble: 9,672 x 2
##    word         n
##    <chr>    <int>
##  1 roomba    2286
##  2 clean     1204
##  3 vacuum     989
##  4 hair       900
##  5 cleaning   809
##  6 time       795
##  7 house      745
##  8 floors     657
##  9 day        578
## 10 floor      561
## # ... with 9,662 more rows
```
…
<img src="08_TXT_files/figure-html/unnamed-chunk-29-1.png" style="display: block; margin: auto;" />

---

# Facet grafikoni

```r
tidy_review %>%
count(word, Product) %>%
arrange(desc(n))
```

```
## # A tibble: 12,719 x 3
##    word     Product                                      n
##    <chr>    <chr>                                    <int>
##  1 clean    iRobot Roomba 880 for Pets and Allergies   815
##  2 vacuum   iRobot Roomba 880 for Pets and Allergies   678
##  3 hair     iRobot Roomba 880 for Pets and Allergies   595
##  4 cleaning iRobot Roomba 880 for Pets and Allergies   560
##  5 880      iRobot Roomba 880 for Pets and Allergies   518
##  6 house    iRobot Roomba 880 for Pets and Allergies   494
##  7 time     iRobot Roomba 880 for Pets and Allergies   494
##  8 floors   iRobot Roomba 880 for Pets and Allergies   405
##  9 love     iRobot Roomba 880 for Pets and Allergies   403
## 10 dust     iRobot Roomba 880 for Pets and Allergies   399
## # ... with 12,709 more rows
```
…
<html><div style='float:left'></div><hr color='#EB811B' size=1px width=796px></html>

(Sve ovisi o riječnicima)

---

# Dohvati riječnike sentimenta

```r
get_sentiments("bing")
```

```
## # A tibble: 6,786 x 2
##    word        sentiment
##    <chr>       <chr>    
##  1 2-faces     negative 
##  2 abnormal    negative 
##  3 abolish     negative 
##  4 abominable  negative 
##  5 abominably  negative 
##  6 abominate   negative 
##  7 abomination negative 
##  8 abort       negative 
##  9 aborted     negative 
## 10 aborts      negative 
## # ... with 6,776 more rows
```
…
# Dohvati drugi riječnik

```r
library(textdata)
get_sentiments("afinn")
```

```
## # A tibble: 2,477 x 2
##    word       value
##    <chr>      <dbl>
##  1 abandon       -2
##  2 abandoned     -2
##  3 abandons      -2
##  4 abducted      -2
##  5 abduction     -2
##  6 abductions    -2
##  7 abhor         -3
##  8 abhorred      -3
##  9 abhorrent     -3
## 10 abhors        -3
## # ... with 2,467 more rows
```
…
# Vizualni pregled riječnika

<img src="08_TXT_files/figure-html/unnamed-chunk-40-1.png" style="display: block; margin: auto;" />

---

# Spoji riječnik i podatke

```r
tidy_review %>%
inner_join(get_sentiments("loughran"))
```

```
## # A tibble: 3,960 x 6
##       id Date     Product                    Stars word      sentiment  
##    <int> <chr>    <chr>                      <dbl> <chr>     <chr>      
##  1     5 12/22/15 iRobot Roomba 650 for Pets     5 slow      negative   
##  2     5 12/22/15 iRobot Roomba 650 for Pets     5 easily    positive   
##  3     5 12/22/15 iRobot Roomba 650 for Pets     5 random    uncertainty
##  4     5 12/22/15 iRobot Roomba 650 for Pets     5 easy      positive   
##  5     5 12/22/15 iRobot Roomba 650 for Pets     5 easy      positive   
##  6     5 12/22/15 iRobot Roomba 650 for Pets     5 easy      positive   
##  7     6 12/27/15 iRobot Roomba 650 for Pets     5 invention positive   
##  8     7 8/17/15  iRobot Roomba 650 for Pets     1 damage    negative   
##  9     7 8/17/15  iRobot Roomba 650 for Pets     1 damage    negative   
## 10     7 8/17/15  iRobot Roomba 650 for Pets     1 justice   litigious  
## # ... with 3,950 more rows
```
…
---

# Pregled spojenih podataka

```r
sentiment_review %>% 
  count(word, sentiment) %>%
  arrange(desc(n))
```

```
## # A tibble: 598 x 3
##    word      sentiment       n
##    <chr>     <chr>       <int>
##  1 easy      positive      297
##  2 happy     positive      107
##  3 easier    positive       97
##  4 easily    positive       92
##  5 perfect   positive       87
##  6 random    uncertainty    81
##  7 impressed positive       77
##  8 excellent positive       58
##  9 trouble   negative       58
## 10 fantastic positive       56
## # ... with 588 more rows
```
…
---

# Pregledaj objekt

```r
lda_topics <- lda_out %>%
tidy(matrix = "beta")
lda_topics %>%
arrange(desc(beta))
```

```
## # A tibble: 19,340 x 3
##    topic term       beta
##    <int> <chr>     <dbl>
##  1     2 hair     0.0238
##  2     1 cleaning 0.0201
##  3     2 house    0.0197
##  4     1 clean    0.0192
##  5     2 floors   0.0174
##  6     2 day      0.0153
##  7     2 vacuum   0.0152
##  8     2 floor    0.0148
##  9     2 job      0.0142
## 10     2 love     0.0141
## # ... with 19,330 more rows
```
…
