MULTIVARIJATNE STATISTIČKE METODE
…
---

# Najpovezaniji teroristi I

```r
terrorists  <- terrorists %>%
  mutate(degree = degree(g),
           strength = strength(g))

arrange(terrorists, desc(degree))
```

```
## # A tibble: 70 x 4
##       id name               degree strength
##    <int> <chr>               <dbl>    <dbl>
##  1     1 Jamal Zougam           29       43
##  2     3 Mohamed Chaoui         27       34
##  3     7 Imad Eddin Barakat     22       35
##  4    11 Amer Azizi             18       27
##  5    41 Said Berrak            17       19
##  6    18 Galeb Kalaje           16       21
##  7    24 Naima Oulad Akcha      16       16
##  8    19 Abderrahim Zbakh       15       15
##  9    31 Jamal Ahmidan          14       14
## 10    61 Mohamed El Egipcio     13       14
## # ... with 60 more rows
```

---

# Najpovezaniji teroristi II

```r
arrange(terrorists, desc(strength))
```

```
## # A tibble: 70 x 4
##       id name               degree strength
##    <int> <chr>               <dbl>    <dbl>
##  1     1 Jamal Zougam           29       43
##  2     7 Imad Eddin Barakat     22       35
##  3     3 Mohamed Chaoui         27       34
##  4    11 Amer Azizi             18       27
##  5    18 Galeb Kalaje           16       21
##  6    15 Mohamed Belfatmi       11       19
##  7    41 Said Berrak            17       19
##  8    16 Said Bahaji            11       17
##  9    24 Naima Oulad Akcha      16       16
## 10    19 Abderrahim Zbakh       15       15
## # ... with 60 more rows
```
…
